'1','01-01-1980 00:00:00','en','A7','A5','A4','A6','A5','A8','A8','A5','A4','A6','A2','A3','A5','A3','A4','A5','A8','A5','A5','A4','A6','A4','A5','A5','A3','A6','A6','A5','A1','A4','A5','A5','A6','A3','A3','A6','A8','A3','A4','A2','A8','A9','A1','A5','A1','A7','A4','A5','A8','A3','A7','A9','A8','A3','A6','A6','A3','A2','A3','A2','A1','A2','A1','A6','A3','A6','A7','A5','A6','A6','A6','A7','A5','A6','A2','A4','A7','A7','A5','1','0','0','1','0','0','0',,'2','A8','A8','A8','6','3','7','4','6','7','7','7','4','A6','A4','A5','A4','1','1985','52','160','2',,'1',,'A5',,'student','english','2570'
'2',,'en',,,,,,,,,,,,,,,,,,,,,,,,,,,,,,,,,,,,,,,,,,,,,,,,,,,,,,,,,,,,,,,,,,,,,,,,,,,,,,,,,'0','0','0','0','0','0',,,,,,,,,,,,,,,,,,,,,,,,,,,,,,,
'3','01-01-1980 00:00:00','en','A5','A8','A8','A2','A3','A8','A8','A8','A9','A9','A5','A7','A7','A6','A1','A8','A8','A7','A8','A8','A8','A9','A7','A9','A7','A9','A7','A7','A1','A8','A8','A8','A5','A2','A5','A7','A8','A3','A7','A4','A8','A9','A2','A7','A7','A8','A8','A7','A8','A8','A6','A8','A9','A5','A9','A8','A3','A7','A5','A6','A5','A7','A4','A6','A4','A6','A3','A6','A5','A5','A7','A7','A7','A2','A4','A7','A7','A3','A4','0','0','0','0','0','0','1',,'0','A7','A7','A7','7','4','7','7','7','7','7','7','4','A7','A5','A5','A4','1','1957','77','180','2',,'1',,'A4',,'Ndco','English','2570'
'4','01-01-1980 00:00:00','en','A7','A8','A5','A3','A1','A9','A9','A7','A9','A5','A1','A5','A6','A2','A7','A5','A9','A5','A6','A3','A5','A7','A7','A9','A4','A8','A9','A3','A8','A5','A7','A5','A4','A3','A1','A9','A9','A2','A7','A9','A9','A8','A1','A7','A3','A2','A9','A6','A8','A6','A5','A7','A9','A8','A7','A6','A6','A7','A5','A6','A2','A5','A4','A7','A6','A4','A7','A2','A5','A4','A7','A5','A6','A5','A6','A4','A7','A7','A4','0','0','0','0','0','0','0','Body butter','0','A2','A2','A2','5','3','5','4','5','5','5','6','3','A3','A4','A4','A3','1','1989','73','178','2',,'1',,'A5',,'Student','English','2105'
'5',,'en',,,,,,,,,,,,,,,'A7','A6','A8','A8','A9','A8','A8',,'A7','A9','A9','A9','A7','A4',,'A5','A8','A9','A8','A7','A7','A6','A6','A4','A7','A7','A8','A9','A2','A8','A6','A8','A8','A5','A7','A5','A5','A8','A9','A3','A7','A8',,,,,,,,,,,,,,,,,,,,,,,,,'0','0','0','0','0','0',,,,,,,,,,,,,,,,,,,,,,,,,,,,,,,
'6','01-01-1980 00:00:00','en','A7','A8','A7','A2','A1','A5','A9','A6','A9','A8','A4','A4','A8','A2','A8','A7','A7','A8','A2','A6','A8','A8','A8','A8','A9','A8','A8','A4','A3','A8','A7','A5','A6','A6','A5','A6','A9','A3','A5','A3','A9','A8','A1','A8','A7','A3','A9','A8','A7','A8','A2','A7','A3','A7','A7','A5','A5','A5','A6','A6','A2','A5','A6','A2','A4','A5','A5','A6','A5','A6','A6','A5','A2','A2','A5','A4','A7','A3','A6','4','1','0','1','0','1','0','tea and coffee','3','A8','A8','A8','3','6','6','6','6','7','3','1','5','A7','A7','A7','A6','2','1972','75','165','2',,'1',,'A4',,'Acoustical Consultant','English','2541'
'7','01-01-1980 00:00:00','en','A9','A6','A4','A3','A2','A4','A5','A5','A7','A5','A7','A5','A5','A4','A3','A7','A7','A4','A5','A4','A7','A6','A4','A7','A3','A5','A6','A7','A5','A6','A8','A4','A3','A3','A4','A5','A7','A7','A5','A4','A7','A5','A2','A2','A6','A7','A7','A8','A7','A5','A3','A8','A8','A5','A7','A5','A7','A5','A5','A2','A7','A6','A6','A2','A6','A2','A3','A2','A2','A1','A6','A5','A5','A3','A6','A7','A5','A6','A2','0','0','0','0','1','0','0',,'5','A6','A6','A7','3','1','3','4','4','6','6','6','3','A5','A5','A5','A3','2','1987','90','190','5',,'1',,'A6',,'acoustic consultant','english','2766'
'8','01-01-1980 00:00:00','en','A7','A8','A5','A2','A2','A8','A5','A8','A7','A5','A3','A4','A7','A9','A7','A5','A9','A7','A4','A8','A7','A8','A8','A6','A5','A6','A8','A4','A5','A4','A4','A6','A6','A5','A7','A7','A7','A3','A6','A5','A9','A7','A1','A6','A3','A8','A9','A8','A5','A4','A6','A9','A6','A4','A5','A6','A5','A4','A4','A3','A5','A5','A3','A3','A6','A4','A5','A5','A3','A3','A4','A6','A5','A2','A5','A5','A6','A7','A5','0','1','0','1','1','0','0',,'3','A7','A7','A7','6','4','4','5','6','7','4','5','3','A5','A7','A6','A2','2','1982','70','170','2',,'1',,'A5',,'Engineer/Student','English','2050'
'9','01-01-1980 00:00:00','en','A5','A6','A7','A3','A2','A8','A4','A7','A5','A6','A4','A7','A6','A6','A8','A6','A7','A4','A6','A8','A9','A6','A7','A7','A6','A7','A4','A3','A4','A6','A9','A7','A7','A8','A5','A6','A7','A7','A8','A4','A7','A8','A3','A4','A4','A7','A8','A6','A4','A7','A6','A6','A9','A7','A7','A7','A7','A6','A6','A3','A4','A6','A6','A5','A2','A4','A5','A5','A4','A5','A6','A5','A5','A4','A5','A3','A6','A4','A2','0','0','0','0','0','0','1',,'0','A8','A8','A5','7','6','6','4','4','7','6','6','2','A6','A5','A5','A3','2','1984','90','170','3',,'1',,'A5',,'Engineer','English','2145'
'10','01-01-1980 00:00:00','en','A8','A7','A5','A5','A4','A8','A8','A7','A6','A6','A1','A2','A7','A4','A5','A6','A7','A8','A5','A4','A8','A5','A8','A6','A3','A7','A7','A5','A1','A4','A8','A4','A7','A3','A5','A7','A7','A3','A3','A2','A8','A9','A1','A7','A3','A7','A4','A4','A3','A3','A7','A8','A7','A2','A5','A5','A3','A2','A2','A5','A1','A1','A2','A7','A3','A5','A7','A6','A6','A6','A6','A6','A6','A5','A5','A5','A7','A5','A5','2','1','1','1','0','0','0',,'3','A7','A6','A7','5','3','6','3','6','7','5','5','4','A7','A4','A5','A4','1','1985','53','160','2',,'1',,'A5',,'student','english','2005'
'11','01-01-1980 00:00:00','en','A8','A8','A8','A5','A3','A8','A7','A7','A8','A8','A3','A8','A7','A7','A8','A8','A7','A7','A8','A8','A8','A8','A6','A8','A9','A8','A8','A8','A7','A7','A8','A8','A7','A7','A8','A7','A8','A8','A7','A5','A8','A8','A3','A5','A5','A8','A7','A7','A7','A7','A7','A7','A8','A8','A7','A7','A6','A6','A6','A6','A6','A6','A6','A4','A6','A4','A4','A5','A4','A2','A4','A6','A6','A4','A6','A6','A4','A4','A4','2','0','0','1','1','0','0',,'2','A5','A5','A5','5','5','4','6','6','5','5','3','4','A5','A5','A5','A4','2','1948','85','175','2',,'1',,'A3',,'Retired','English','2570'
'12','01-01-1980 00:00:00','en','A7','A8','A5','A2','A1','A9','A2','A4','A6','A5','A3','A7','A6','A3','A6','A6','A7','A1','A6','A7','A9','A6','A4','A6','A2','A6','A7','A4','A5','A7','A9','A4','A4','A5','A5','A8','A9','A6','A7','A5','A6','A9','A8','A4','A4','A8','A5','A5','A7','A9','A3','A6','A9','A6','A5','A6','A5','A6','A5','A4','A3','A5','A4','A2','A4','A1','A1','A2','A2','A1','A4','A5','A5','A2','A6','A6','A6','A5','A2','0','0','0','0','0','0','1',,'0','A2','A2','A2','4','5','3','3','4','6','5','3','4','A4','A4','A4','A4','1','1969','70','160','4',,'4',,'A3',,'Administration','English','2170'
'13','01-01-1980 00:00:00','en','A8','A8','A8','A8','A2','A9','A8','A8','A8','A8','A8','A8','A5','A7','A9','A7','A8','A5','A8','A9','A9','A7','A8','A8','A9','A9','A8','A5','A8','A5','A8','A9','A5','A9','A8','A8','A8','A8','A8','A7','A8','A9','A8','A5','A5','A8','A8','A8','A8','A8','A5','A8','A8','A8','A8','A9','A7','A7','A6','A6','A7','A7','A2','A3','A2','A6','A1','A2','A1','A1','A4','A5','A6','A7','A7','A5','A6','A6','A1','0','0','0','0','0','0','1',,'0','A1','A1','A1','3','3','3','3','3','7','7','3','3','A2','A4','A5','A1','1','1947','63','150','2',,'1',,'A3',,'self funded retiree','english','2261'
'14','01-01-1980 00:00:00','en','A9','A9','A8','A8','A2','A9','A8','A7','A8','A9','A7','A7','A9','A2','A8','A5','A4','A3','A9','A5','A9','A8','A5','A9','A9','A9','A8','A5','A8','A8','A9','A9','A5','A5','A5','A5','A5','A8','A5','A5','A5','A9','A5','A7','A4','A9','A7','A5','A8','A9','A3','A6','A9','A7','A8','A8','A6','A7','A6','A6','A3','A6','A7','A2','A4','A5','A3','A4','A3','A3','A3','A7','A7','A4','A3','A6','A6','A7','A2','0','0','0','0','0','0','1',,'0','A3','A3','A3','6','6','7','6','7','7','3','3','4','A3','A6','A6','A6','1','1972','90','160','3',,'3',,'A4',,'receptionist','english','2567'
'15','01-01-1980 00:00:00','en','A8','A8','A7','A6','A3','A8','A5','A5','A7','A8','A4','A4','A5','A7','A8','A6','A7','A4','A5','A9','A8','A7','A5','A6','A8','A8','A8','A7','A6','A6','A8','A5','A4','A7','A6','A6','A8','A7','A6','A4','A6','A8','A3','A6','A4','A6','A7','A7','A8','A8','A4','A5','A8','A4','A6','A8','A6','A6','A4','A6','A6','A6','A5','A4','A4','A4','A2','A3','A3','A2','A4','A4','A4','A6','A5','A5','A5','A3','A1','0','0','0','0','0','0','1',,'0','A3','A3','A2','2','4','2','3','2','7','5','4','5','A3','A3','A3','A3','2','1940','88','180','2',,'1',,'A4',,'Retired','English','2752'
'16','01-01-1980 00:00:00','en','A9','A8','A8','A5','A3','A9','A5','A6','A8','A8','A2','A4','A9','A2','A6','A8','A5','A5','A7','A8','A9','A8','A6','A8','A9','A8','A8','A7','A7','A6','A9','A9','A4','A2','A8','A5','A4','A7','A5','A3','A6','A8','A1','A6','A5','A7','A5','A5','A6','A8','A4','A7','A8','A5','A3','A8','A5','A2','A4','A2','A6','A5','A4','A2','A6','A2','A5','A4','A2','A2','A2','A5','A5','A4','A7','A4','A6','A5','A2','0','0','0','0','0','0','1',,'0','A4','A4','A4','4','5','4','4','4','5','7','5','3','A5','A5','A5','A5','1','1973','110','170','1',,'1',,'A5',,'Teacher','English','2680'
'17',,'en','A5','A6','A7','A5','A4','A7','A5','A6','A3','A3','A9','A5','A6','A4','A5','A4','A4','A5','A8','A7','A7','A6','A4','A5','A4','A7','A6','A6','A6','A4','A7','A4','A5','A5','A6','A8','A5','A6','A6','A5','A7','A8','A8','A5','A4','A7','A5','A4','A6','A7','A6','A6','A8','A4','A4','A5',,,,,,,,,,,,,,,,,,,,,,,,,'0','0','0','0','0','0',,,,,,,,,,,,,,,,,,,,,,,,,,,,,,,
'18','01-01-1980 00:00:00','en','A8','A8','A6','A5','A3','A5','A9','A7','A6','A5','A1','A6','A3','A5','A6','A3','A8','A4','A9','A7','A3','A6','A2','A4','A3','A8','A7','A6','A3','A4','A7','A6','A3','A6','A4','A9','A8','A7','A7','A2','A7','A4','A2','A3','A3','A6','A7','A6','A8','A5','A6','A7','A8','A4','A3','A6','A5','A3','A5','A6','A7','A6','A5','A4','A6','A1','A2','A3','A2','A1','A5','A6','A4','A2','A5','A1','A7','A4','A1','0','0','0','0','0','0','1',,'0','A2','A2','A2','6','2','4','6','7','6','4','1','1','A6','A6','A5','A3','1','1989','70','175','5',,'2',,'A5',,'School Student Support Officer','English','2170'
'19','01-01-1980 00:00:00','en','A8','A7','A8','A7','A1','A8','A7','A6','A8','A6','A7','A6','A7','A7','A8','A7','A5','A5','A7','A9','A9','A8','A6','A9','A9','A7','A7','A7','A7','A9','A9','A8','A5','A8','A8','A8','A9','A8','A9','A1','A5','A8','A7','A7','A7','A6','A5','A6','A9','A8','A7','A7','A9','A8','A8','A8','A6','A5','A5','A5','A4','A5','A5','A5','A5','A1','A4','A4','A1','A1','A2','A6','A7','A6','A6','A5','A6','A6','A5','2','1','0','1','1','0','0',,'1','A7','A7','A7','6','7','7','7','7','7','7','5','4','A5','A6','A6','A5','1','1951','70','160','3',,'2',,'A6',,'teacher','english','2567'
'20','01-01-1980 00:00:00','en','A5','A9','A5','A5','A7','A9','A5','A9','A9','A9','A1','A7','A9','A9','A5','A7','A3','A7','A3','A9','A8','A9','A8','A8','A8','A9','A9','A7','A5','A8','A8','A2','A2','A8','A8','A2','A8','A4','A6','A8','A9','A9','A1','A5','A5','A9','A7','A8','A5','A7','A8','A9','A7','A8','A3','A5','A7','A4','A5','A5','A6','A6','A7','A4','A4','A4','A3','A2','A2','A2','A2','A4','A4','A2','A6','A4','A6','A4','A2','0','0','0','0','0','0','1',,'0','A3','A3','A3','4','4','2','1','1','7','1','1','4','A4','A4','A4','A1','2','1970','70','162','2',,'1',,'A3',,'driver','english','2571'
'21','01-01-1980 00:00:00','en','A8','A8','A8','A8','A9','A9','A8','A8','A9','A8','A5','A8','A9','A8','A8','A7','A6','A6','A7','A9','A9','A7','A7','A9','A9','A9','A9','A9','A5','A5','A9','A9','A5','A7','A8','A9','A7','A8','A9','A4','A9','A9','A3','A8','A5','A8','A8','A8','A8','A8','A3','A8','A9','A6','A6','A8','A7','A5','A5','A5','A5','A6','A6','A6','A6','A4','A2','A6','A6','A1','A6','A7','A7','A2','A6','A7','A7','A4','A5','1','0','0','1','0','0','0',,'1','A4','A4','A4','7','7','7','7','7','7','6','1','1','A7','A7','A5','A2','1','1955','50','160','2',,'1',,'A4',,'S/E Cleaning contractor','English','2570'
'22',,'en',,,,,,,,,,,,,,,,,,,,,,,,,,,,,,,,,,,,,,,,,,,,,,,,,,,,,,,,,,,,,,,,,,,,,,,,,,,,,,,,,'0','0','0','0','0','0',,,,,,,,,,,,,,,,,,,,,,,,,,,,,,,
'23','01-01-1980 00:00:00','en','A7','A8','A8','A5','A2','A4','A5','A7','A5','A7','A4','A6','A5','A4','A5','A8','A5','A5','A7','A5','A5','A6','A4','A6','A4','A6','A6','A4','A6','A7','A7','A7','A5','A4','A4','A5','A7','A6','A6','A4','A5','A5','A4','A4','A7','A6','A7','A7','A7','A5','A5','A7','A6','A6','A6','A6','A5','A5','A4','A4','A5','A5','A5','A3','A4','A3','A3','A3','A3','A3','A3','A4','A4','A3','A6','A7','A7','A4','A6','12','1','1','1','1','0','0','Honey','12','A8','A8','A8','7','6','7','6','7','7','7','7','4','A6','A6','A7','A6','1','1977','70','180','2',,'1',,'A6',,'Economist','English','2570'
'24','01-01-1980 00:00:00','en','A7','A8','A7','A7','A4','A8','A7','A7','A8','A7','A2','A4','A5','A2','A7','A6','A5','A7','A7','A7','A8','A8','A7','A8','A8','A8','A8','A8','A7','A4','A8','A8','A8','A7','A8','A5','A7','A7','A6','A5','A7','A9','A2','A7','A5','A8','A6','A7','A7','A6','A6','A7','A7','A7','A4','A7','A6','A6','A6','A6','A6','A6','A5','A4','A6','A4','A4','A4','A4','A3','A4','A6','A6','A2','A6','A5','A5','A4','A2','0','0','0','0','0','0','1',,'0','A3','A3','A5','4','4','5','5','5','6','6','2','5','A5','A5','A4','A4','2','1952','91','182','2',,'1',,'A4',,'Retired','English','2323'
'25','01-01-1980 00:00:00','en','A7','A7','A8','A8','A5','A8','A7','A8','A8','A8','A9','A8','A8','A8','A6','A7','A7','A7','A8','A9','A9','A9','A7','A9','A8','A8','A8','A8','A7','A7','A7','A7','A7','A7','A8','A8','A7','A8','A8','A8','A8','A9','A8','A7','A7','A8','A7','A8','A8','A8','A7','A7','A8','A8','A8','A8','A5','A6','A5','A5','A5','A5','A5','A6','A5','A4','A4','A5','A4','A4','A5','A6','A6','A5','A5','A6','A6','A6','A2','0','0','0','0','0','0','1',,'0','A5','A5','A5','6','6','6','6','7','6','6','6','6','A6','A6','A6','A6','2','1946','80','165','2',,'1',,'A4',,'retired bank manager','english','2560'
'26','01-01-1980 00:00:00','en','A7','A8','A8','A9','A4','A8','A3','A8','A5','A3','A9','A8','A8','A3','A4','A4','A2','A3','A8','A8','A7','A4','A2','A5','A3','A8','A7','A7','A5','A4','A7','A5','A3','A5','A5','A8','A7','A8','A8','A4','A5','A8','A8','A7','A4','A8','A2','A5','A8','A9','A5','A3','A8','A5','A5','A8','A6','A6','A5','A5','A6','A7','A6','A4','A7','A4','A3','A3','A5','A3','A3','A3','A3','A2','A6','A5','A6','A4','A1','0','0','0','0','0','0','1',,'0','A3','A3','A3','6','5','5','4','5','7','5','4','3','A4','A4','A4','A4','1','1984','62','165','3',,'2',,'A5',,'Mother','English','2133'
'27','01-01-1980 00:00:00','en','A9','A4','A8','A5','A1','A9','A4','A5','A3','A9','A8','A6','A6','A4','A3','A8','A6','A4','A8','A7','A5','A8','A3','A7','A1','A9','A7','A5','A3','A7','A8','A9','A3','A8','A2','A9','A8','A6','A8','A1','A7','A5','A3','A3','A8','A8','A7','A8','A8','A7','A3','A6','A8','A4','A8','A9','A6','A6','A7','A2','A5','A6','A6','A7','A6','A3','A4','A5','A2','A1','A6','A6','A5','A4','A6','A7','A6','A4','A6','10','0','1','1','1','0','0',,'10','A8','A8','A8','7','7','7','7','7','5','2','3','3','A7','A7','A7','A7','1','1982','57','165','2',,'1',,'A5',,'teacher','english','2006'
'28','01-01-1980 00:00:00','en','A7','A7','A7','A7','A2','A8','A4','A5','A8','A7','A9','A8','A8','A3','A3','A4','A3','A8','A8','A7','A7','A3','A3','A7','A3','A7','A7','A5','A6','A7','A8','A6','A5','A5','A8','A9','A8','A8','A8','A7','A5','A8','A8','A7','A3','A8','A7','A6','A8','A8','A7','A6','A8','A4','A4','A7','A6','A3','A3','A3','A5','A6','A3','A6','A5','A3','A3','A6','A3','A2','A4','A6','A6','A5','A6','A5','A6','A6','A1','0','0','0','0','0','0','1',,'0','A2','A3','A2','6','3','6','6','6','7','4','4','2','A5','A5','A3','A2','2','1982','81','180','4',,'3',,'A5',,'Student','English','2133'
'29',,'en','A8','A8','A8','A5','A3','A5','A3','A7','A7','A6','A9','A5','A8','A3','A5','A5','A5','A7','A9','A4','A5','A5','A3','A5','A2','A8','A8','A5',,,,,,,,,,,,,,,,,,,,,,,,,,,,,,,,,,,,,,,,,,,,,,,,,,,,,'0','0','0','0','0','0',,,,,,,,,,,,,,,,,,,,,,,,,,,,,,,
'30','01-01-1980 00:00:00','en','A9','A8','A9','A8','A4','A8','A5','A8','A9','A9','A9','A7','A8','A5','A8','A8','A8','A8','A9','A8','A8','A8','A7','A9','A8','A9','A8','A5','A8','A8','A9','A9','A5','A5','A5','A9','A8','A8','A8','A5','A8','A8','A9','A8','A7','A8','A8','A8','A8','A8','A7','A8','A8','A5','A7','A8','A6','A4','A4','A4','A7','A7','A7','A4','A5','A5','A2','A5','A5','A4','A5','A4','A5','A2','A6','A6','A7','A6','A1','0','0','0','0','0','0','1',,'0','A3','A3','A3','5','4','4','5','4','7','5','5','5','A4','A4','A4','A2','1','1959','67','176','3',,'1',,'A6',,'consultant','English','2153'
'31','01-01-1980 00:00:00','en','A9','A9','A9','A8','A7','A8','A8','A8','A9','A9','A8','A8','A8','A7','A9','A9','A7','A7','A8','A8','A9','A9','A7','A9','A9','A8','A9','A8','A4','A8','A9','A9','A9','A6','A5','A5','A8','A8','A8','A5','A7','A9','A3','A8','A8','A8','A8','A8','A8','A8','A7','A8','A9','A6','A6','A9','A7','A7','A7','A5','A7','A6','A6','A6','A7','A2','A5','A5','A2','A2','A4','A5','A6','A5','A6','A6','A7','A6','A7','3','0','0','1','1','0','0',,'4','A8','A8','A8','5','3','7','5','5','7','6','6','4','A7','A7','A7','A4','1','1957','52','150','2',,'1',,'A5',,'projects','english','2537'
'32','01-01-1980 00:00:00','en','A9','A7','A9','A6','A2','A7','A4','A4','A5','A9','A6','A5','A7','A3','A7','A5','A2','A2','A7','A6','A8','A5','A5','A8','A7','A8','A7','A3','A6','A5','A9','A8','A5','A3','A7','A7','A5','A4','A8','A4','A6','A9','A2','A5','A4','A7','A4','A2','A4','A8','A3','A3','A5','A2','A6','A8','A5','A3','A3','A2','A2','A3','A3','A3','A4','A2','A3','A2','A2','A1','A3','A4','A4','A5','A5','A6','A6','A4','A4','0','0','0','1','1','0','0',,'0','A5','A5','A6','3','4','5','4','5','6','5','2','3','A4','A4','A4','A2','1','1965','79','167','5',,'2',,'A5',,'teacher','english','2795'
'33','01-01-1980 00:00:00','en','A8','A5','A5','A4','A1','A8','A5','A6','A7','A7','A4','A7','A9','A3','A5','A7','A5','A5','A9','A8','A8','A8','A3','A6','A7','A9','A8','A4','A4','A6','A8','A6','A5','A4','A5','A6','A6','A5','A7','A2','A7','A9','A4','A4','A4','A8','A7','A5','A6','A7','A5','A8','A8','A4','A6','A8','A5','A5','A4','A5','A6','A6','A5','A4','A5','A2','A6','A3','A2','A2','A4','A5','A5','A5','A6','A5','A6','A7','A4','0','0','0','0','0','0','1',,'0','A5','A5','A6','6','4','6','5','6','7','5','3','3','A5','A5','A5','A2','1','1981','70','166','3',,'2',,'A5',,'Disability Officer','English','2573'
'34','01-01-1980 00:00:00','en','A6','A7','A7','A7','A4','A8','A5','A5','A8','A4','A5','A8','A8','A3','A5','A9','A9','A4','A7','A9','A9','A8','A5','A9','A9','A5','A7','A8','A4','A5','A7','A8','A5','A6','A6','A8','A9','A8','A9','A3','A5','A9','A8','A5','A9','A8','A8','A9','A8','A7','A3','A6','A7','A4','A9','A9','A5','A5','A4','A5','A7','A7','A6','A2','A6','A4','A3','A2','A2','A1','A1','A5','A6','A4','A6','A5','A6','A5','A5','2','1','1','1','1','0','0',,'2','A8','A8','A8','7','7','7','7','7','5','3','1','1','A7','A7','A7','A5','2','1978','75','180','4',,'3',,'A5',,'Occupational Therapist','English','2570'
'35','01-01-1980 00:00:00','en','A7','A8','A7','A6','A4','A8','A6','A6','A7','A6','A5','A7','A7','A5','A5','A5','A6','A6','A7','A8','A8','A7','A7','A9','A7','A8','A7','A6','A6','A7','A8','A8','A7','A6','A6','A8','A7','A7','A8','A5','A9','A9','A4','A6','A5','A8','A5','A5','A6','A7','A6','A7','A8','A8','A7','A8','A3','A4','A3','A3','A5','A5','A3','A4','A6','A4','A6','A5','A2','A1','A5','A6','A6','A5','A6','A7','A7','A7','A4','0','1','0','0','0','0','0',,'0','A3','A4','A4','6','4','6','5','4','7','5','6','4','A4','A4','A3','A2','1','1980','60','155','2',,'1',,'A5',,'welfare','english','2570'
'36','01-01-1980 00:00:00','en','A9','A8','A8','A5','A1','A9','A8','A8','A9','A9','A6','A6','A9','A7','A8','A8','A7','A5','A8','A8','A8','A9','A5','A9','A6','A8','A7','A4','A6','A8','A8','A9','A6','A8','A7','A9','A8','A8','A8','A1','A8','A9','A4','A5','A7','A8','A8','A8','A8','A8','A7','A8','A9','A7','A8','A9','A7','A6','A5','A5','A5','A6','A6','A5','A6','A7','A2','A6','A4','A2','A7','A7','A7','A4','A6','A7','A7','A4','A5','1','1','0','1','1','0','0',,'1','A8','A8','A8','7','6','7','6','7','6','6','6','4','A7','A7','A4','A5','1','1957','85','165','4',,'1',,'A4',,'community services','english','2575'
'38','01-01-1980 00:00:00','en','A9','A6','A6','A2','A4','A5','A5','A5','A7','A8','A3','A6','A7','A2','A6','A9','A4','A6','A6','A6','A6','A6','A5','A7','A2','A6','A6','A6','A4','A7','A7','A8','A2','A4','A6','A7','A9','A6','A8','A4','A6','A9','A1','A5','A8','A6','A4','A6','A7','A7','A5','A5','A5','A5','A6','A9','A1','A2','A2','A3','A1','A1','A2','A7','A2','A7','A7','A4','A7','A7','A7','A3','A2','A7','A1','A7','A6','A5','A4','2','0','0','1','0','0','0','eggs','2','A5','A5','A7','6','6','7','7','6','6','5','6','5','A6','A6','A5','A4','1','1958','98','168','4',,'3',,'A6',,'teacher','English','2284'
'39','01-01-1980 00:00:00','en','A8','A8','A9','A3','A6','A8','A7','A7','A8','A8','A7','A6','A7','A6','A7','A7','A7','A7','A8','A7','A7','A8','A7','A9','A7','A8','A8','A8','A7','A7','A8','A8','A7','A6','A5','A7','A7','A7','A8','A6','A8','A8','A5','A6','A5','A7','A7','A7','A7','A7','A7','A8','A8','A7','A8','A8','A6','A6','A6','A6','A6','A6','A6','A6','A6','A4','A4','A5','A4','A3','A4','A5','A6','A4','A6','A7','A7','A7','A3','0','0','0','0','0','0','1',,'0','A2','A2','A2','6','1','6','1','5','7','4','1','4','A4','A4','A4','A1','1','1954','74','172','3',,'1',,'A5',,'TAFE teacher','English','2103'
'40','01-01-1980 00:00:00','en','A9','A9','A9','A8','A1','A9','A4','A7','A9','A9','A6','A7','A7','A6','A9','A9','A6','A6','A6','A8','A4','A9','A4','A9','A9','A9','A8','A7','A7','A8','A9','A7','A3','A3','A3','A8','A9','A9','A9','A5','A7','A9','A1','A1','A6','A9','A9','A9','A9','A9','A4','A7','A9','A6','A7','A9','A7','A7','A5','A5','A5','A3','A6','A6','A2','A1','A7','A7','A1','A1','A4','A6','A6','A3','A5','A7','A7','A4','A7','4','0','0','1','1','0','0',,'6','A8','A8','A8','7','7','7','7','7','7','5','6','2','A7','A7','A7','A7','1','1963','68','153','2',,'1',,'A6',,'teacher','english','2147'
'41','01-01-1980 00:00:00','en','A8','A9','A8','A5','A1','A7','A3','A8','A8','A8','A9','A8','A6','A5','A8','A7','A5','A5','A8','A9','A9','A8','A2','A9','A8','A8','A7','A3','A5','A7','A9','A9','A3','A6','A7','A8','A8','A8','A8','A6','A5','A8','A8','A4','A7','A8','A5','A5','A7','A8','A5','A7','A7','A7','A5','A9','A5','A5','A4','A4','A5','A5','A4','A4','A6','A5','A4','A5','A3','A2','A4','A6','A6','A5','A6','A6','A7','A7','A4','0','0','0','1','1','0','1',,'0','A5','A8','A8','7','7','4','7','7','7','6','6','5','A7','A7','A7','A7','1','1970','68','155','4',,'3',,'A4',,'CEO','English','2170'
'42','01-01-1980 00:00:00','en','A9','A8','A8','A5','A2','A8','A7','A7','A8','A8','A5','A5','A8','A2','A5','A8','A8','A5','A8','A8','A7','A8','A5','A9','A8','A8','A8','A8','A7','A8','A8','A9','A7','A7','A8','A5','A6','A5','A8','A5','A8','A9','A5','A7','A7','A9','A9','A8','A5','A7','A3','A7','A8','A4','A8','A8','A4','A6','A6','A4','A3','A4','A4','A2','A6','A2','A2','A2','A2','A1','A2','A2','A3','A2','A3','A4','A7','A2','A5','3','0','1','0','0','0','0','shampoo and conditioner','1','A4','A4','A4','6','4','7','5','6','7','7','7','2','A7','A6','A6','A4','1','1958','80','178','5',,'1',,'A6',,'Teacher','English','2515'
'43','01-01-1980 00:00:00','en','A8','A8','A5','A4','A2','A8','A5','A5','A8','A8','A3','A5','A6','A5','A7','A7','A6','A5','A8','A7','A7','A6','A4','A4','A3','A7','A7','A6','A4','A8','A7','A5','A4','A4','A4','A6','A6','A5','A7','A3','A6','A7','A2','A4','A4','A5','A6','A6','A6','A6','A3','A6','A8','A4','A7','A8','A5','A5','A4','A4','A3','A4','A3','A3','A3','A3','A4','A4','A3','A2','A3','A3','A5','A4','A5','A6','A6','A4','A7','6','0','1','1','1','0','0','Wheat products, tofu','13','A8','A8','A8','6','7','6','6','7','7','6','6','4','A6','A6','A7','A6','2','1962','77','198','4',,'2',,'A5',,'Teacher','English & Japanese','2044'
'44','01-01-1980 00:00:00','en','A8','A9','A9','A7','A5','A9','A7','A7','A9','A8','A8','A7','A8','A6','A7','A8','A7','A7','A9','A7','A7','A9','A7','A9','A8','A9','A7','A7','A8','A8','A9','A9','A7','A5','A5','A8','A8','A7','A8','A6','A8','A9','A2','A7','A8','A8','A8','A8','A8','A6','A7','A8','A8','A8','A8','A8','A5','A5','A4','A5','A5','A6','A5','A6','A5','A5','A2','A6','A5','A3','A6','A7','A7','A4','A5','A7','A5','A5','A5','3','1','0','1','1','0','0','honey, nut spread, flour','3','A7','A7','A8','6','7','7','7','7','7','7','6','2','A7','A7','A7','A7','1','1967','57','152','4',,'1',,'A4',,'community sector','english','2569'
'45','01-01-1980 00:00:00','en','A7','A7','A8','A3','A1','A8','A8','A3','A8','A8','A8','A5','A7','A7','A5','A9','A7','A2','A8','A8','A8','A8','A4','A9','A3','A7','A7','A6','A4','A8','A7','A7','A4','A4','A4','A7','A8','A6','A6','A6','A7','A8','A2','A4','A9','A7','A7','A8','A8','A7','A2','A3','A7','A3','A8','A5','A4','A6','A7','A5','A5','A5','A6','A4','A5','A2','A6','A4','A3','A1','A5','A6','A7','A4','A6','A7','A6','A2','A5','2','1','0','1','0','0','0',,'0','A8','A8','A8','4','4','6','6','6','7','5','6','5','A6','A6','A6','A6','1','1959','61','169','2',,'1',,'A6',,'psychologist','English','2830'
'47','01-01-1980 00:00:00','en','A8','A7','A7','A6','A3','A7','A3','A7','A9','A8','A6','A4','A6','A6','A9','A8','A7','A7','A7','A5','A7','A8','A5','A6','A7','A7','A7','A5','A5','A8','A7','A9','A3','A3','A3','A7','A8','A8','A8','A5','A7','A9','A2','A3','A7','A8','A8','A8','A7','A8','A6','A8','A7','A3','A8','A8','A5','A6','A5','A5','A6','A6','A6','A6','A5','A2','A4','A3','A2','A1','A4','A5','A5','A3','A5','A6','A7','A3','A4','1','0','1','0','0','0','0',,'0','A4','A4','A4','3','1','2','3','3','6','4','4','6','A4','A4','A4','A2','1','1947','75','167','2',,'1',,'A6',,'Extended leave prior to retirement','English','2111'
'48','01-01-1980 00:00:00','en','A8','A8','A8','A8','A3','A9','A5','A6','A6','A7','A2','A7','A7','A4','A7','A7','A5','A7','A6','A7','A7','A7','A7','A9','A9','A8','A7','A5','A6','A5','A8','A8','A5','A6','A4','A6','A6','A6','A7','A4','A6','A7','A2','A5','A5','A5','A5','A5','A5','A5','A5','A5','A7','A7','A5','A5','A5','A5','A5','A5','A4','A5','A5','A5','A5','A5','A5','A5','A5','A5','A5','A5','A5','A5','A5','A5','A6','A5','A5','0','1','1','1','1','0','0',,'2','A5','A5','A5','6','6','6','6','6','6','4','4','2','A5','A5','A5','A5','1','1967','90','172','4',,'3',,'A4',,'TAFE Teacher','English','2155'
'49','01-01-1980 00:00:00','en','A8','A8','A7','A5','A1','A8','A5','A4','A9','A8','A7','A5','A5','A4','A6','A9','A7','A5','A8','A4','A7','A8','A4','A8','A4','A8','A8','A3','A7','A7','A9','A7','A3','A4','A7','A7','A6','A7','A8','A1','A8','A9','A2','A2','A5','A8','A6','A7','A5','A8','A2','A6','A7','A3','A3','A8','A6','A7','A7','A4','A5','A6','A6','A2','A6','A1','A2','A3','A1','A1','A3','A4','A6','A1','A6','A7','A6','A6','A4','0','0','0','0','0','0','1',,'0','A7','A8','A6','7','5','5','6','4','7','2','1','4','A7','A7','A7','A3','2','1948','65','172','3',,'1',,'A5',,'Psychologist','English','2064'
'50','01-01-1980 00:00:00','en','A8','A8','A7','A6','A3','A8','A6','A6','A6','A5','A7','A5','A7','A5','A8','A8','A4','A6','A7','A8','A7','A7','A6','A8','A8','A7','A7','A6','A7','A6','A8','A8','A6','A8','A6','A7','A6','A6','A7','A6','A6','A8','A7','A5','A5','A5','A6','A6','A5','A5','A5','A5','A8','A5','A5','A8','A5','A5','A5','A5','A5','A5','A5','A4','A5','A3','A3','A3','A3','A2','A3','A4','A4','A4','A6','A6','A6','A6','A4','0','1','0','0','0','0','0',,'0','A3','A3','A4','4','4','4','4','4','7','3','3','3','A4','A4','A4','A4','1','1959','100','168','4',,'2',,'A5',,'community services','english','2570'
'51','01-01-1980 00:00:00','en','A9','A8','A5','A2','A1','A5','A5','A5','A8','A8','A2','A5','A5','A5','A2','A5','A5','A5','A5','A4','A4','A8','A5','A5','A5','A5','A2','A1','A2','A4','A5','A7','A2','A6','A2','A7','A3','A2','A9','A1','A8','A7','A2','A5','A3','A5','A7','A6','A5','A5','A2','A5','A8','A3','A6','A6','A2','A2','A4','A3','A1','A2','A2','A3','A2','A5','A3','A5','A5','A3','A6','A7','A6','A6','A5','A6','A7','A5','A5','0','1','0','1','0','0','0',,'1','A8','A8','A8','6','2','6','2','6','7','3','3','1','A7','A7','A5','A1','1','1987','84','167','2',,'1',,'A5',,'Disability Case Manager','English','2233'
'52','01-01-1980 00:00:00','en','A8','A8','A9','A7','A4','A8','A5','A7','A8','A7','A5','A5','A7','A3','A8','A8','A6','A5','A7','A7','A7','A9','A7','A8','A8','A8','A8','A5','A7','A8','A9','A8','A8','A7','A7','A7','A8','A7','A8','A5','A8','A9','A3','A7','A8','A9','A7','A8','A8','A7','A7','A8','A8','A7','A7','A8','A7','A6','A5','A5','A6','A6','A6','A6','A7','A5','A3','A4','A6','A6','A6','A6','A5','A4','A5','A7','A7','A7','A5','3','1','0','1','1','0','0',,'2','A7','A7','A7','6','7','6','7','7','7','4','4','2','A7','A7','A7','A6','1','1963','54','160','5',,'3',,'A6',,'Consultant','English','2234'
'53','01-01-1980 00:00:00','en','A8','A8','A7','A6','A3','A8','A5','A7','A8','A7','A8','A6','A7','A4','A6','A5','A4','A5','A8','A8','A8','A8','A5','A8','A8','A8','A6','A5','A4','A5','A8','A6','A4','A5','A4','A8','A4','A6','A7','A4','A6','A9','A7','A6','A4','A7','A5','A6','A5','A8','A6','A7','A8','A7','A5','A6','A6','A5','A5','A6','A6','A6','A5','A5','A6','A5','A4','A6','A4','A2','A3','A4','A5','A4','A6','A6','A6','A6','A4','0','0','0','1','0','0','0','eggs - free range','1','A3','A4','A4','6','6','4','5','5','7','2','2','4','A5','A4','A5','A2','1','1969','75','165','5',,'4',,'A5',,'Teacher','English','2528'
'54','01-01-1980 00:00:00','en','A8','A7','A6','A3','A3','A6','A7','A6','A6','A8','A1','A3','A9','A5','A6','A2','A5','A3','A6','A3','A8','A7','A6','A6','A5','A7','A9','A7','A6','A5','A6','A6','A6','A2','A4','A6','A5','A6','A7','A2','A9','A7','A1','A6','A2','A6','A2','A5','A5','A4','A2','A7','A9','A7','A3','A6','A5','A5','A1','A5','A6','A4','A3','A3','A5','A3','A4','A5','A2','A1','A3','A5','A4','A2','A6','A2','A5','A6','A1','0','0','0','0','0','0','1',,'0','A2','A2','A4','7','5','7','7','7','7','7','4','4','A6','A7','A5','A2','1','1986','60','160','3',,'1',,'A5',,'Disability Advisor','English','2747'
'55','01-01-1980 00:00:00','en','A9','A8','A8','A8','A5','A9','A7','A5','A8','A9','A2','A4','A8','A3','A7','A7','A5','A5','A9','A8','A8','A7','A5','A5','A6','A8','A7','A2','A8','A7','A9','A9','A2','A7','A5','A6','A6','A4','A6','A7','A8','A9','A2','A5','A7','A7','A7','A7','A7','A8','A3','A8','A9','A5','A7','A8','A6','A7','A5','A6','A5','A6','A6','A1','A2','A1','A1','A3','A4','A1','A3','A5','A5','A1','A7','A7','A7','A4','A5','2','0','0','1','1','0','0',,'2','A5','A5','A5','5','5','7','6','3','7','2','2','5','A6','A6','A4','A4','1','1968','85','170','4',,'1',,'A3',,'Administration','English','2773'
'56','01-01-1980 00:00:00','en','A9','A9','A9','A6','A2','A9','A4','A7','A7','A9','A7','A7','A8','A1','A7','A8','A4','A3','A9','A7','A7','A7','A5','A9','A3','A8','A8','A8','A5','A6','A8','A9','A4','A5','A2','A8','A8','A6','A8','A2','A8','A9','A2','A6','A6','A8','A7','A8','A9','A9','A3','A6','A9','A3','A9','A9','A3','A4','A4','A6','A6','A3','A3','A6','A6','A2','A6','A6','A1','A2','A6','A6','A6','A6','A6','A5','A7','A4','A5','5','0','0','1','1','0','0',,'5','A8','A8','A8','5','7','5','7','7','7','7','7','7','A7','A7','A7','A2','1','1970','110','168','4',,'3',,'A5',,'teacher','english','2795'
'57','01-01-1980 00:00:00','en','A9','A5','A9','A5','A5','A9','A8','A6','A9','A8','A7','A6','A8','A4','A8','A8','A8','A7','A9','A9','A9','A8','A5','A9','A8','A9','A8','A7','A5','A5','A9','A9','A5','A5','A5','A8','A8','A5','A6','A2','A8','A9','A2','A5','A5','A6','A6','A6','A8','A8','A4','A8','A8','A5','A4','A7','A6','A6','A6','A6','A4','A6','A6','A6','A2','A5','A7','A4','A6','A3','A6','A6','A6','A4','A6','A7','A7','A4','A5','4','1','1','0','0','0','0',,'2','A8','A8','A6','7','7','7','7','7','7','4','6','4','A7','A7','A7','A4','1','1952','56','158','3',,'1',,'A5',,'Edication Consultant','English','2030'
'58','01-01-1980 00:00:00','en','A8','A9','A8','A7','A2','A9','A5','A8','A8','A8','A5','A5','A8','A2','A8','A5','A2','A8','A8','A9','A5','A8','A4','A8','A9','A8','A5','A5','A8','A7','A8','A9','A8','A8','A8','A7','A8','A6','A6','A5','A5','A9','A8','A8','A5','A8','A7','A7','A7','A8','A8','A8','A9','A5','A5','A9','A4','A4','A2','A4','A5','A5','A5','A5','A6','A2','A2','A5','A3','A2','A2','A3','A3','A6','A6','A6','A7','A7','A1','0','0','0','0','0','0','1',,'0','A2','A2','A2','4','4','4','4','7','7','2','3','1','A2','A3','A3','A2','1','1947','97','150','2',,'1',,'A4',,'retired','english','2566'
'59','01-01-1980 00:00:00','en','A6','A6','A7','A4','A3','A7','A7','A8','A8','A8','A5','A5','A4','A3','A6','A6','A5','A5','A4','A4','A5','A5','A7','A7','A6','A7','A7','A7','A3','A7','A5','A5','A6','A6','A6','A6','A6','A6','A5','A6','A7','A7','A4','A6','A2','A5','A5','A5','A5','A5','A6','A6','A6','A8','A4','A4','A7','A6','A3','A3','A4','A5','A5','A5','A5','A5','A5','A5','A5','A5','A5','A5','A5','A5','A5','A5','A5','A5','A2','2','1','0','0','1','0','0',,'2','A6','A6','A6','6','4','5','5','5','6','6','6','6','A7','A5','A7','A3','2','1986','75','171','3',,'1',,'A5',,'TV Producer','English','2567'
'60','01-01-1980 00:00:00','en','A9','A9','A8','A8','A8','A9','A5','A5','A9','A9','A8','A5','A9','A5','A8','A6','A5','A5','A8','A8','A9','A8','A2','A9','A8','A9','A5','A5','A3','A5','A9','A9','A2','A8','A5','A9','A8','A8','A8','A2','A2','A9','A8','A5','A8','A9','A8','A5','A8','A8','A2','A3','A8','A5','A2','A8','A6','A6','A6','A6','A6','A6','A6','A6','A4','A5','A5','A5','A5','A5','A5','A7','A6','A6','A6','A5','A7','A6','A5','1','0','0','1','0','0','0',,'1','A4','A4','A4','6','5','6','6','6','7','4','4','4','A6','A6','A6','A6','1','1981','80','168','2',,'1',,'A6',,'Manager','English','2232'
'61','01-01-1980 00:00:00','en','A8','A5','A9','A8','A5','A9','A9','A9','A7','A6','A3','A7','A8','A8','A5','A3','A8','A5','A9','A4','A7','A8','A8','A8','A8','A9','A7','A4','A7','A4','A6','A7','A7','A5','A5','A5','A7','A5','A7','A7','A9','A9','A8','A7','A6','A8','A9','A5','A4','A8','A7','A9','A9','A5','A6','A9','A4','A5','A5','A6','A5','A5','A6','A6','A6','A6','A2','A5','A2','A2','A5','A7','A7','A3','A7','A7','A4','A6','A6','12','0','0','1','1','0','0',,'15','A8','A8','A8','6','5','7','7','7','7','3','4','2','A6','A6','A7','A5','1','1988','53','156','5',,'1',,'A5',,'Student','English','2042'
'62','01-01-1980 00:00:00','en','A4','A7','A8','A5','A1','A5','A5','A5','A8','A6','A2','A4','A7','A2','A3','A7','A7','A3','A8','A8','A6','A9','A3','A9','A4','A7','A7','A2','A1','A7','A9','A7','A2','A6','A3','A8','A8','A5','A6','A2','A5','A8','A2','A3','A6','A8','A7','A9','A9','A6','A3','A6','A9','A3','A7','A7','A5','A7','A5','A3','A4','A5','A5','A2','A4','A1','A1','A3','A2','A1','A3','A6','A6','A2','A6','A7','A7','A6','A4','1','0','0','1','0','0','0',,'0','A5','A5','A5','4','4','5','5','5','7','7','6','2','A7','A7','A7','A3','1','1965','63','155','4',,'3',,'A5',,'Disability manager','English','2233'
'63','01-01-1980 00:00:00','en','A3','A7','A3','A3','A4','A4','A5','A7','A5','A5','A2','A6','A6','A2','A5','A3','A3','A4','A4','A2','A3','A7','A7','A7','A5','A6','A7','A7','A3','A3','A6','A3','A4','A2','A5','A5','A8','A5','A6','A3','A4','A5','A1','A5','A2','A5','A3','A4','A8','A4','A5','A6','A6','A3','A3','A5','A7','A7','A7','A5','A6','A7','A7','A2','A4','A2','A2','A3','A2','A2','A2','A3','A2','A1','A6','A5','A3','A4','A4','1','1','0','0','0','0','0',,'1','A3','A3','A5','6','2','4','4','4','7','3','3','5','A6','A6','A6','A5','2','1983','81','177','2',,'1',,'A5',,'Analyst','English','2110'
'64','01-01-1980 00:00:00','en','A8','A9','A6','A7','A3','A8','A6','A7','A6','A5','A3','A7','A7','A3','A6','A5','A6','A6','A6','A3','A7','A8','A7','A6','A4','A8','A8','A7','A3','A4','A7','A6','A5','A3','A3','A6','A9','A4','A7','A3','A7','A6','A1','A5','A3','A7','A8','A7','A9','A5','A5','A6','A7','A5','A7','A7','A7','A6','A6','A6','A3','A5','A5','A5','A4','A3','A3','A6','A2','A4','A5','A5','A5','A3','A5','A4','A5','A6','A5','1','0','0','1','0','0','0',,'1','A8','A8','A8','4','5','3','4','4','6','4','3','6','A6','A5','A4','A4','1','1980','95','162','1',,'1',,'A6',,'Director','Ensligh','2065'
'65','01-01-1980 00:00:00','en','A8','A8','A7','A2','A1','A8','A8','A8','A9','A8','A1','A8','A9','A4','A8','A5','A5','A4','A6','A5','A8','A8','A5','A7','A5','A7','A8','A9','A5','A5','A7','A5','A7','A5','A5','A4','A5','A5','A4','A1','A9','A9','A1','A5','A1','A5','A3','A5','A5','A5','A2','A7','A5','A5','A5','A5','A3','A3','A5','A6','A4','A7','A5','A2','A5','A7','A5','A5','A2','A2','A3','A7','A5','A7','A7','A5','A7','A7','A3','0','0','0','0','0','0','0','soups','0','A2','A3','A3','3','4','3','3','3','6','4','2','3','A4','A4','A4','A1','1','1983','101','180','1',,'1',,'A5',,'manager','English','2763'
'66','01-01-1980 00:00:00','en','A8','A9','A9','A7','A2','A9','A5','A8','A8','A9','A9','A9','A9','A2','A8','A8','A8','A9','A9','A9','A7','A8','A2','A8','A8','A9','A8','A5','A7','A5','A9','A8','A7','A6','A5','A9','A9','A6','A9','A8','A8','A9','A4','A8','A5','A8','A5','A5','A9','A5','A4','A8','A9','A5','A5','A9','A3','A1','A1','A2','A4','A6','A2','A6','A3','A1','A6','A6','A6','A1','A6','A3','A6','A6','A3','A5','A7','A4','A1','0','0','0','0','0','0','1',,'0','A2','A2','A2','6','2','2','3','2','7','7','7','6','A5','A5','A6','A1','1','1967','59','164','5',,'2',,'A6',,'Teacher','English','2234'
'68','01-01-1980 00:00:00','en','A7','A7','A5','A4','A3','A8','A4','A3','A7','A7','A5','A3','A8','A2','A6','A7','A5','A5','A8','A5','A5','A7','A7','A8','A8','A8','A7','A4','A4','A6','A7','A8','A4','A7','A4','A8','A7','A5','A7','A2','A4','A9','A3','A5','A4','A7','A7','A5','A6','A5','A3','A5','A8','A5','A6','A6','A2','A2','A2','A4','A2','A3','A2','A3','A2','A3','A3','A3','A3','A2','A3','A6','A5','A4','A4','A5','A6','A6','A5','1','0','0','1','1','0','0',,'2','A4','A3','A3','5','3','4','5','6','7','6','6','5','A5','A5','A3','A3','1','1947','75','63','3',,'1',,'A6',,'teacher','English','2100'
'69','01-01-1980 00:00:00','en','A8','A6','A5','A3','A4','A5','A6','A6','A7','A8','A2','A2','A5','A4','A9','A5','A5','A5','A7','A8','A7','A7','A6','A9','A7','A8','A8','A6','A4','A5','A8','A8','A2','A7','A5','A6','A8','A5','A4','A4','A7','A9','A2','A3','A3','A7','A7','A8','A7','A4','A4','A6','A6','A7','A7','A7','A5','A5','A4','A4','A6','A6','A5','A3','A5','A2','A2','A2','A2','A2','A4','A3','A4','A2','A5','A5','A6','A5','A4','0','0','0','1','0','0','0',,'0','A2','A2','A2','2','2','1','2','2','6','4','4','5','A3','A4','A4','A4','2','1948','96','185','2',,'1',,'A6',,'retired','english','4500'
'70','01-01-1980 00:00:00','en','A9','A8','A8','A6','A2','A9','A5','A6','A8','A9','A6','A6','A6','A2','A2','A8','A4','A3','A8','A8','A8','A8','A5','A8','A5','A8','A8','A8','A6','A5','A8','A8','A5','A5','A5','A5','A5','A3','A5','A1','A5','A8','A5','A5','A5','A8','A5','A5','A8','A5','A5','A5','A8','A5','A6','A8','A4','A4','A4','A5','A4','A5','A5','A4','A3','A5','A4','A5','A4','A3','A5','A6','A5','A4','A3','A6','A6','A6','A4','0','0','0','1','0','0','0',,'0','A3','A3','A3','3','3','3','3','3','3','3','3','3','A3','A3','A3','A3','1','1952','70','158','2',,'1',,'A3',,'Administration Officer','English','2560'
'71','01-01-1980 00:00:00','en','A7','A9','A7','A4','A5','A6','A5','A9','A3','A6','A1','A4','A5','A5','A3','A4','A6','A7','A6','A3','A3','A5','A7','A5','A3','A7','A8','A6','A2','A3','A5','A3','A6','A3','A3','A9','A8','A4','A5','A3','A9','A9','A1','A7','A3','A6','A7','A5','A5','A5','A6','A9','A5','A5','A6','A3','A5','A6','A4','A5','A4','A5','A4','A4','A4','A5','A4','A4','A5','A3','A5','A5','A3','A3','A5','A6','A7','A3','A4','0','0','0','0','0','0','1',,'0','A7','A7','A6','7','4','5','6','6','7','5','5','5','A4','A7','A4','A3','1','1984','68','161','-oth-','8','1',,'A5',,'Auditor','English','2037'
'72','01-01-1980 00:00:00','en','A9','A5','A7','A4','A2','A8','A5','A6','A9','A7','A9','A7','A7','A4','A8','A5','A5','A5','A9','A8','A8','A7','A4','A6','A7','A7','A6','A7','A5','A4','A8','A8','A6','A6','A7','A8','A5','A8','A8','A8','A6','A7','A9','A6','A4','A7','A6','A4','A8','A9','A3','A4','A7','A3','A3','A9','A3','A3','A4','A3','A2','A2','A3','A3','A3','A3','A4','A6','A6','A7','A4','A4','A4','A4','A2','A5','A5','A5','A4','0','1','0','0','0','0','0',,'0','A5','A5','A5','5','5','5','5','5','6','5','3','2','A5','A5','A4','A3','1','1983','60','170','3',,'2',,'A5',,'stay at home mother','english','2133'
'73','01-01-1980 00:00:00','en','A8','A5','A5','A4','A3','A8','A5','A5','A5','A4','A3','A4','A8','A3','A8','A8','A8','A4','A8','A8','A8','A5','A3','A9','A9','A8','A5','A4','A5','A4','A8','A9','A5','A4','A4','A3','A4','A5','A7','A3','A5','A9','A2','A5','A5','A5','A5','A3','A5','A5','A3','A7','A8','A3','A3','A4','A3','A2','A2','A2','A3','A3','A2','A1','A7','A1','A5','A5','A1','A1','A1','A3','A3','A1','A5','A7','A6','A6','A4','0','1','0','1','0','0','0',,'1','A3','A3','A3','7','5','5','5','5','7','5','5','1','A7','A7','A7','A6','1','1949','62','160','1',,'1',,'A3',,'retired','english','2546'
'74',,'en','A8','A9','A9','A7','A3','A9','A7','A5','A9','A5','A1','A5','A7','A4','A5','A5','A7','A5','A9','A5','A4','A9','A5','A9','A7','A9','A7','A5','A7','A4','A9','A5','A3','A1','A1','A9','A9','A7','A5','A7','A9','A9','A1','A4','A6','A6','A8','A5','A8','A5','A4','A7','A9','A3','A3','A7','A7','A3','A3','A3','A7','A7','A7','A1','A6','A3','A3','A5',,'A4','A6','A6','A6','A4','A6',,,,,,'0','0','0','0','0','0',,,,,,,,,,,,,,,,,,,,,,,,,,,,,,,
'75','01-01-1980 00:00:00','en','A9','A9','A9','A1','A1','A9','A1','A9','A7','A6','A8','A4','A8','A1','A8','A9','A8','A8','A9','A9','A9','A9','A7','A9','A8','A9','A9','A9','A1','A8','A9','A9','A1','A7','A7','A9','A9','A8','A8','A1','A9','A9','A8','A5','A7','A8','A3','A7','A8','A8','A1','A7','A9','A9','A9','A9','A5','A5','A5','A4','A6','A6','A5','A3','A4','A2','A2','A3','A1','A1','A1','A3','A3','A2','A5','A7','A6','A1','A7','20','1','1','1','1','0','0',,'20','A8','A8','A8','7','6','7','7','7','7','1','1','1','A7','A7','A7','A7','1','1952','69','171','2',,'1',,'A6',,'Teacher','English','2300'
'76','01-01-1980 00:00:00','en','A7','A7','A2','A2','A2','A8','A1','A7','A6','A3','A9','A5','A6','A2','A6','A7','A2','A2','A7','A9','A8','A2','A2','A8','A7','A5','A6','A3','A3','A2','A9','A7','A1','A5','A4','A3','A6','A6','A7','A2','A4','A8','A9','A2','A2','A7','A4','A4','A6','A8','A2','A3','A7','A8','A2','A7','A5','A2','A7','A5','A6','A5','A3','A2','A6','A1','A1','A2','A2','A1','A2','A3','A4','A2','A6','A6','A6','A2','A2','0','0','0','0','0','0','1',,'0','A2','A2','A3','3','3','1','3','3','7','5','5','4','A4','A4','A5','A3','1','1981','77','168','5',,'4',,'A5',,'home duites','english','2480'
'77','01-01-1980 00:00:00','en','A8','A8','A6','A8','A3','A7','A7','A7','A8','A9','A3','A6','A7','A5','A6','A6','A6','A7','A8','A7','A8','A8','A5','A8','A4','A9','A8','A5','A7','A8','A8','A7','A6','A3','A4','A6','A8','A6','A5','A6','A7','A7','A2','A5','A6','A7','A5','A7','A7','A8','A3','A5','A6','A2','A7','A7','A4','A5','A5','A4','A5','A5','A4','A3','A6','A3','A2','A2','A2','A1','A3','A5','A5','A6','A5','A5','A7','A4','A4','0','0','0','0','0','0','1',,'0','A5','A5','A5','6','3','3','4','5','7','5','4','1','A4','A4','A5','A1','2','1980','75','174','1',,'1',,'A5',,'Market research analyst','English','3204'
'78','01-01-1980 00:00:00','en','A8','A7','A9','A2','A6','A9','A8','A8','A8','A9','A7','A7','A8','A8','A8','A7','A8','A8','A8','A8','A9','A7','A7','A9','A6','A9','A7','A7','A5','A5','A9','A8','A5','A8','A7','A5','A5','A7','A8','A2','A8','A8','A2','A4','A5','A8','A5','A4','A7','A8','A2','A8','A9','A7','A8','A8','A5','A6','A5','A7','A6','A6','A5','A7','A5','A4','A6','A5','A4','A3','A5','A7','A7','A6','A6','A6','A7','A4','A4','0','1','0','0','0','0','0',,'1','A3','A2','A2','4','3','2','2','7','7','2','3','2','A4','A4','A4','A3','1','1962','55','165','5',,'2',,'A5',,'Psychologist','English','2074'
'79','01-01-1980 00:00:00','en','A7','A9','A6','A6','A4','A6','A5','A8','A8','A8','A5','A8','A6','A3','A6','A4','A5','A7','A8','A7','A8','A7','A5','A7','A5','A7','A9','A8','A7','A7','A7','A5','A9','A6','A6','A7','A8','A8','A7','A3','A5','A6','A4','A5','A4','A6','A5','A6','A7','A6','A7','A8','A8','A5','A4','A7','A7','A5','A6','A4','A6','A5','A4','A3','A3','A5','A3','A3','A3','A3','A4','A4','A4','A5','A6','A5','A6','A6','A4','0','1','0','1','1','0','0',,'0','A4','A4','A4','5','5','5','5','5','7','4','2','4','A5','A5','A4','A5','1','1977','0','175','1',,'1',,'A5',,'Academic','English','2560'
'80','01-01-1980 00:00:00','en','A9','A8','A8','A5','A1','A8','A5','A5','A9','A8','A9','A7','A8','A1','A8','A8','A7','A2','A9','A9','A8','A8','A4','A8','A7','A8','A8','A5','A3','A6','A8','A8','A5','A7','A8','A8','A5','A6','A8','A5','A8','A9','A3','A5','A7','A8','A8','A6','A8','A9','A1','A7','A9','A5','A8','A9','A6','A7','A6','A6','A6','A6','A6','A6','A6','A2','A2','A4','A2','A1','A5','A6','A5','A6','A7','A5','A7','A3','A4','0','1','1','1','1','0','0',,'0','A7','A6','A6','4','7','7','7','7','7','7','1','4','A7','A7','A7','A5','1','1966','54','166','4',,'3',,'A3',,'Office Worker','English','2600'
'81','01-01-1980 00:00:00','en','A8','A6','A8','A5','A7','A7','A9','A8','A9','A8','A5','A4','A3','A8','A7','A8','A9','A5','A9','A8','A8','A7','A6','A9','A5','A8','A5','A8','A7','A5','A6','A8','A5','A8','A6','A5','A7','A5','A6','A1','A9','A8','A4','A5','A5','A8','A9','A8','A7','A6','A5','A7','A8','A8','A9','A8','A4','A6','A4','A5','A3','A4','A4','A5','A4','A5','A6','A4','A5','A4','A5','A6','A6','A6','A7','A4','A7','A2','A5','1','0','0','0','1','0','0',,'0','A4','A4','A3','1','5','6','5','5','7','4','2','2','A5','A6','A6','A6','1','1988','59','169','1',,'1',,'A5',,'Student','English','2050'
'82','01-01-1980 00:00:00','en','A8','A7','A8','A6','A9','A9','A8','A8','A8','A8','A8','A8','A9','A4','A8','A8','A7','A7','A8','A9','A9','A8','A4','A8','A7','A8','A7','A7','A7','A6','A9','A7','A7','A8','A7','A8','A7','A7','A8','A5','A8','A8','A8','A8','A5','A7','A8','A8','A8','A8','A7','A7','A9','A8','A7','A8','A5','A7','A6','A3','A5','A6','A6','A5','A7','A4','A4','A4','A4','A4','A4','A5','A6','A3','A6','A6','A6','A4','A4','4','0','0','1','1','0','0',,'0','A7','A7','A7','6','7','6','4','5','7','2','3','4','A6','A6','A6','A2','2','1982','85','180','1',,'1',,'A5',,'occupational therapist','english','2213'
'83','01-01-1980 00:00:00','en','A8','A8','A8','A5','A2','A9','A9','A8','A9','A9','A5','A8','A9','A8','A8','A7','A9','A7','A9','A8','A8','A9','A7','A9','A6','A9','A9','A9','A5','A6','A9','A5','A7','A5','A6','A9','A9','A9','A8','A5','A9','A9','A1','A8','A7','A8','A8','A8','A8','A8','A7','A9','A9','A7','A7','A8','A5','A5','A4','A5','A4','A4','A4','A7','A4','A6','A6','A6','A5','A5','A7','A7','A7','A6','A6','A7','A7','A7','A4','0','0','0','0','0','0','1',,'0','A4','A4','A5','4','5','5','4','5','6','6','4','2','A6','A6','A6','A4','1','1981','64','180','2',,'1',,'A6',,'Academic','English','2572'
'84','01-01-1980 00:00:00','en','A9','A5','A5','A5','A2','A5','A5','A5','A8','A8','A4','A5','A8','A4','A8','A9','A5','A5','A9','A8','A8','A8','A5','A9','A9','A8','A5','A5','A5','A5','A5','A9','A5','A5','A5','A9','A5','A5','A5','A3','A8','A9','A1','A4','A5','A5','A5','A5','A5','A5','A2','A5','A8','A5','A9','A9','A4','A6','A6','A6','A5','A5','A5','A5','A5','A4','A4','A5','A4','A2','A4','A6','A6','A4','A6','A6','A6','A4','A6','6','0','0','1','1','0','0','coffee, eggs','6','A8','A8','A8','6','4','6','5','4','7','4','4','4','A7','A7','A4','A7','1','1956','54','163','2',,'1',,'A5',,'Project Officer','English','2777'
'85','01-01-1980 00:00:00','en','A8','A5','A5','A2','A3','A8','A5','A3','A8','A7','A5','A7','A9','A2','A6','A9','A5','A3','A3','A2','A7','A2','A3','A9','A3','A4','A6','A8','A5','A8','A8','A9','A3','A3','A3','A7','A7','A3','A3','A5','A8','A9','A1','A5','A8','A7','A4','A5','A5','A3','A4','A3','A8','A4','A8','A5','A6','A6','A5','A6','A6','A6','A5','A6','A2','A1','A4','A2','A2','A2','A2','A6','A6','A4','A6','A5','A7','A2','A2','0','0','0','0','0','0','1',,'0','A2','A2','A2','6','4','5','4','5','7','4','3','4','A5','A5','A5','A5','1','1982','52','165','2',,'1',,'A4',,'florist','english','2110'
'86','01-01-1980 00:00:00','en','A7','A8','A7','A5','A5','A8','A8','A8','A9','A7','A5','A7','A7','A6','A8','A6','A8','A7','A7','A8','A8','A8','A8','A7','A6','A9','A7','A8','A2','A5','A6','A5','A5','A7','A6','A7','A9','A7','A6','A4','A9','A8','A1','A7','A5','A7','A8','A8','A8','A8','A8','A8','A7','A6','A7','A6','A5','A6','A6','A5','A5','A6','A7','A6','A3','A6','A4','A5','A5','A6','A6','A5','A5','A4','A4','A5','A5','A4','A4','0','1','0','0','0','0','0',,'0','A5','A5','A5','5','4','4','3','3','7','6','5','6','A5','A6','A5','A4','2','1983','90','183','2',,'1',,'A6',,'IT','English','2015'
'87','01-01-1980 00:00:00','en','A8','A7','A7','A6','A1','A7','A2','A5','A9','A7','A4','A4','A7','A5','A5','A7','A7','A4','A6','A7','A7','A8','A4','A6','A5','A9','A7','A5','A2','A7','A7','A9','A8','A4','A4','A8','A9','A7','A6','A1','A9','A9','A2','A5','A6','A7','A7','A7','A6','A4','A1','A8','A9','A8','A7','A9','A5','A6','A7','A6','A6','A7','A5','A5','A6','A4','A3','A7','A5','A4','A3','A5','A2','A1','A7','A7','A5','A4','A4','0','1','0','0','0','0','0',,'0','A8','A8','A8','1','4','2','4','5','7','3','2','7','A7','A4','A5','A1','1','1983','57','183','2',,'1',,'A6',,'Curator','English','2033'
'89','01-01-1980 00:00:00','en','A8','A1','A2','A1','A1','A8','A5','A3','A8','A4','A9','A9','A8','A4','A8','A7','A6','A7','A9','A8','A8','A1','A1','A6','A3','A6','A7','A1','A4','A7','A9','A5','A1','A5','A8','A9','A9','A9','A9','A1','A6','A7','A9','A1','A3','A7','A3','A6','A8','A9','A6','A4','A8','A3','A3','A6','A7','A7','A6','A3','A5','A7','A5','A1','A6','A2','A2','A2','A1','A1','A3','A6','A5','A2','A6','A6','A6','A6','A1','0','0','0','0','0','0','1',,'0','A1','A4','A4','4','2','1','2','2','7','4','4','2','A2','A4','A4','A1','2','1982','93','189','4',,'3',,'A6',,'Theology Student, Engineer','English','2133'
'90','01-01-1980 00:00:00','en','A9','A8','A6','A2','A1','A8','A6','A7','A9','A8','A8','A6','A9','A6','A6','A6','A7','A5','A7','A8','A8','A8','A4','A7','A2','A7','A8','A2','A3','A8','A8','A7','A2','A2','A7','A8','A8','A7','A9','A3','A7','A9','A9','A6','A5','A7','A7','A7','A7','A8','A5','A6','A8','A6','A6','A7','A7','A7','A5','A2','A5','A6','A6','A3','A6','A4','A6','A6','A1','A1','A4','A7','A7','A6','A6','A7','A7','A4','A5','0','0','0','1','1','0','0',,'10','A8','A8','A8','5','7','7','7','7','7','7','7','3','A7','A7','A7','A1','1','1980','84','153','4',,'3',,'A5',,'Disability Advisor','English','2570'
'91','01-01-1980 00:00:00','en','A8','A8','A7','A7','A2','A9','A8','A8','A8','A8','A3','A9','A7','A7','A7','A8','A5','A5','A5','A6','A9','A8','A8','A8','A6','A8','A8','A8','A7','A6','A9','A9','A4','A7','A8','A8','A8','A8','A8','A4','A8','A8','A1','A4','A8','A8','A8','A8','A8','A8','A8','A8','A8','A5','A7','A8','A6','A2','A2','A2','A5','A6','A4','A2','A6','A2','A6','A1','A2','A5','A4','A3','A6','A2','A7','A6','A7','A2','A5','5','0','0','1','1','0','0',,'5','A7','A7','A6','5','7','5','5','7','7','2','6','3','A5','A5','A5','A5','2','1986','74','174','1',,'1',,'A5',,'Acoustic Scientist','English','2042'
'92','01-01-1980 00:00:00','en','A8','A7','A7','A7','A4','A8','A7','A5','A8','A5','A3','A6','A7','A7','A7','A6','A7','A7','A7','A7','A7','A7','A7','A8','A6','A7','A7','A6','A6','A6','A7','A5','A6','A5','A7','A7','A7','A8','A6','A5','A8','A8','A2','A5','A4','A7','A5','A6','A7','A6','A6','A7','A8','A7','A5','A8','A6','A6','A6','A6','A5','A5','A6','A6','A6','A5','A5','A5','A4','A3','A5','A6','A6','A5','A5','A5','A6','A6','A2','0','0','0','0','1','0','0',,'0','A6','A6','A6','2','3','3','4','5','6','5','4','3','A5','A5','A5','A4','2','1984','67','177','2',,'1',,'A5',,'Engineer','Cantonese','2121'
'93','01-01-1980 00:00:00','en','A7','A8','A8','A8','A8','A9','A8','A8','A8','A5','A1','A6','A9','A5','A8','A3','A8','A8','A8','A8','A9','A9','A9','A9','A9','A8','A8','A5','A7','A5','A9','A9','A9','A5','A7','A8','A9','A9','A9','A5','A9','A9','A5','A9','A5','A8','A4','A8','A8','A3','A7','A8','A9','A8','A8','A9','A6','A7','A7','A6','A6','A6','A5','A6','A5','A6','A6','A6','A6','A6','A6','A6','A6','A5','A5','A5','A7','A6','A1','0','0','0','0','0','0','1',,'0','A1','A2','A2','2','3','2','2','2','7','4','3','6','A4','A4','A4','A4','2','1991','73','173','4',,'1',,'A5',,'Student','Polish','2170'
'94','01-01-1980 00:00:00','en','A8','A8','A8','A4','A4','A7','A7','A7','A8','A8','A5','A7','A9','A8','A6','A6','A9','A8','A8','A8','A8','A7','A8','A9','A8','A8','A8','A6','A6','A6','A6','A7','A7','A7','A7','A9','A7','A7','A7','A6','A9','A9','A2','A8','A5','A7','A9','A8','A6','A7','A7','A7','A9','A4','A6','A6','A6','A6','A5','A6','A6','A5','A6','A5','A5','A5','A3','A4','A5','A2','A6','A6','A7','A2','A5','A6','A6','A5','A4','0','0','0','0','0','0','1',,'0','A4','A4','A4','4','4','5','5','5','7','5','3','5','A4','A4','A5','A4','1','1985','55','173','5',,'1',,'A5',,'Social Worker','English','2151'
'95','01-01-1980 00:00:00','en','A8','A8','A8','A7','A4','A8','A7','A8','A8','A8','A4','A7','A7','A7','A7','A7','A8','A7','A7','A7','A7','A7','A8','A8','A7','A8','A8','A7','A7','A8','A8','A8','A8','A6','A7','A7','A8','A8','A8','A7','A8','A8','A4','A8','A6','A8','A8','A8','A8','A7','A8','A8','A8','A8','A8','A7','A5','A6','A6','A6','A5','A5','A6','A6','A4','A6','A5','A6','A4','A6','A6','A6','A6','A6','A5','A5','A6','A6','A6','5','1','1','1','0','1','0',,'7','A8','A8','A8','6','5','7','7','7','7','6','6','4','A7','A7','A5','A6','2','1983','75','185','1',,'1',,'A4',,'Director','English','2560'
'96','01-01-1980 00:00:00','en','A8','A7','A7','A6','A5','A7','A6','A6','A8','A7','A8','A8','A8','A5','A8','A7','A6','A6','A9','A7','A7','A7','A5','A6','A9','A7','A7','A6','A4','A5','A9','A7','A4','A6','A6','A6','A8','A8','A8','A6','A6','A6','A9','A5','A6','A9','A5','A7','A7','A7','A6','A6','A8','A5','A5','A6','A7','A7','A7','A1','A7','A7','A7','A1','A7','A4','A2','A2','A1','A1','A1','A5','A5','A2','A6','A6','A7','A5','A2','0','0','0','0','0','0','1',,'0','A5','A5','A5','5','4','7','5','5','6','4','4','5','A5','A5','A4','A4','2','1989','60','180','5',,'2',,'A5',,'Student','English','2068'
'97',,'en',,,,,,,,,,,,,,,'A8','A8','A7','A7','A7','A7','A8','A7','A5','A9','A8','A9','A8','A7','A7','A7','A8','A8','A7','A7','A8','A7','A7','A7','A7','A5','A8','A9',,'A7','A8','A8','A6','A6','A6','A7',,'A6','A8','A8','A6','A8',,,,,,,,,,,,,,,,,,,,,,,,,'0','0','0','0','0','0',,,,,,,,,,,,,,,,,,,,,,,,,,,,,,,
'98','01-01-1980 00:00:00','en','A9','A7','A9','A3','A2','A8','A8','A7','A9','A9','A6','A7','A9','A6','A5','A5','A7','A4','A9','A7','A8','A8','A7','A9','A6','A8','A8','A7','A4','A4','A8','A8','A7','A6','A4','A5','A8','A7','A8','A4','A9','A9','A4','A6','A5','A5','A7','A6','A6','A6','A3','A7','A9','A8','A6','A6','A5','A5','A3','A6','A4','A5','A4','A7','A4','A5','A2','A5','A5','A5','A6','A6','A6','A4','A5','A7','A7','A7','A5','4','1','0','1','1','0','0','dips','2','A4','A5','A5','5','5','6','6','6','7','3','3','3','A6','A6','A6','A4','1','1983','55','167','3',,'1',,'A5',,'Human Resource Generalist','English','2031'
'99','01-01-1980 00:00:00','en','A9','A8','A8','A8','A5','A8','A8','A8','A9','A8','A9','A9','A9','A6','A8','A6','A6','A8','A9','A8','A8','A8','A6','A9','A9','A9','A9','A9','A5','A7','A9','A9','A8','A8','A8','A8','A8','A8','A8','A5','A8','A8','A8','A8','A8','A8','A8','A5','A8','A8','A5','A8','A8','A5','A5','A8','A7','A7','A7','A7','A7','A7','A7','A6','A6','A1','A1','A3','A3','A3','A3','A5','A5','A1','A7','A7','A6','A6','A2','0','0','0','0','0','0','1',,'0','A3','A3','A3','3','3','3','3','3','7','7','7','7','A3','A3','A3','A1','1','1949','65','157','2',,'1',,'A3',,'receptionist','english','4500'
